strands00001
strands00002
strands00003
strands00004
strands00005
strands00006
strands00007
strands00008
strands00009
strands00010
strands00011
strands00012
strands00013
strands00014
strands00015
strands00016
strands00017
strands00018
strands00019
strands00020
strands00021
strands00022
strands00023
strands00024
strands00025
strands00026
strands00027
strands00028
strands00029
strands00030
strands00031
strands00032
strands00033
strands00034
strands00035
strands00036
strands00037
strands00038
strands00039
strands00040
strands00041
strands00042
strands00043
strands00044
strands00045
strands00046
strands00047
strands00048
strands00049
strands00050
strands00051
strands00052
strands00053
strands00054
strands00055
strands00056
strands00057
strands00058
strands00059
strands00060
strands00061
strands00062
strands00063
strands00064
strands00065
strands00069
strands00071
strands00072
strands00075
strands00079
strands00080
strands00082
strands00083
strands00084
strands00085
strands00086
strands00087
strands00088
strands00089
strands00091
strands00092
strands00093
strands00094
strands00095
strands00097
strands00098
strands00100
strands00101
strands00104
strands00105
strands00106
strands00107
strands00109
strands00110
strands00111
strands00112
strands00115
strands00116
strands00118
strands00119
strands00120
strands00121
strands00123
strands00126
strands00127
strands00129
strands00130
strands00131
strands00132
strands00134
strands00135
strands00136
strands00137
strands00138
strands00139
strands00141
strands00142
strands00144
strands00146
strands00147
strands00148
strands00149
strands00150
strands00151
strands00152
strands00153
strands00154
strands00155
strands00156
strands00157
strands00159
strands00160
strands00161
strands00162
strands00163
strands00164
strands00165
strands00166
strands00167
strands00168
strands00170
strands00171
strands00172
strands00173
strands00174
strands00175
strands00177
strands00183
strands00184
strands00187
strands00188
strands00197
strands00204
strands00205
strands00206
strands00207
strands00209
strands00210
strands00212
strands00216
strands00218
strands00219
strands00220
strands00221
strands00222
strands00223
strands00224
strands00229
strands00230
strands00234
strands00239
strands00240
strands00241
strands00243
strands00244
strands00245
strands00248
strands00249
strands00250
strands00253
strands00254
strands00256
strands00257
strands00259
strands00260
strands00261
strands00269
strands00270
strands00272
strands00273
strands00274
strands00275
strands00276
strands00277
strands00278
strands00279
strands00280
strands00281
strands00282
strands00283
strands00285
strands00286
strands00287
strands00288
strands00289
strands00292
strands00293
strands00294
strands00296
strands00297
strands00302
strands00303
strands00304
strands00305
strands00306
strands00307
strands00308
strands00309
strands00310
strands00311
strands00312
strands00313
strands00314
strands00315
strands00316
strands00317
strands00318
strands00319
strands00320
strands00321
strands00322
strands00323
strands00324
strands00325
strands00326
strands00327
strands00328
strands00329
strands00330
strands00331
strands00332
strands00333
strands00334
strands00335
strands00336
strands00337
strands00338
strands00339
strands00340
strands00341
strands00342
strands00343
strands00344
strands00345
strands00347
strands00349
strands00350
strands00353
strands00354
strands00355
strands00356
strands00357
strands00358
strands00359
strands00360
strands00361
strands00362
strands00363
strands00364
strands00365
strands00366
strands00367
strands00368
strands00369
strands00370
strands00371
strands00372
strands00373
strands00374
strands00375
strands00376
strands00377
strands00378
strands00380
strands00381
strands00382
strands00384
strands00385
strands00386
strands00389
strands00390
strands00391
strands00392
strands00393
strands00394
strands00395
strands00396
strands00397
strands00398
strands00399
strands00400
strands00402
strands00403
strands00404
strands00405
strands00406
strands00407
strands00409
strands00412
strands00413
strands00414
strands00417
strands00418
strands00419
strands00420
strands00422
strands00423
strands00424
strands00426
strands00427
strands00428
strands00429
strands00430
strands00431
strands00432
strands00433
strands00434
strands00437
strands00438
strands00439
strands00441
strands00443
strands00448
strands00500
strands00501
strands00509
strands00510
strands00511
strands00512
strands00513
strands00514
